# BPM

CLASS = "'bpm'"
QUALITY = 0
DATATYPE = "'image'"

MJD,MJDWIN1,MJDWIN2,DIR,IMAGEID,VALUE

56475,NULL,200.5,'bpm/DECamMasterCal_56475','01','DECam_Master_20130716_cd_01.fits'
56475,NULL,200.5,'bpm/DECamMasterCal_56475','02','DECam_Master_20130716_cd_02.fits'
56475,NULL,200.5,'bpm/DECamMasterCal_56475','03','DECam_Master_20130716_cd_03.fits'
56475,NULL,200.5,'bpm/DECamMasterCal_56475','04','DECam_Master_20130716_cd_04.fits'
56475,NULL,200.5,'bpm/DECamMasterCal_56475','05','DECam_Master_20130716_cd_05.fits'
56475,NULL,200.5,'bpm/DECamMasterCal_56475','06','DECam_Master_20130716_cd_06.fits'
56475,NULL,200.5,'bpm/DECamMasterCal_56475','07','DECam_Master_20130716_cd_07.fits'
56475,NULL,200.5,'bpm/DECamMasterCal_56475','08','DECam_Master_20130716_cd_08.fits'
56475,NULL,200.5,'bpm/DECamMasterCal_56475','09','DECam_Master_20130716_cd_09.fits'
56475,NULL,200.5,'bpm/DECamMasterCal_56475','10','DECam_Master_20130716_cd_10.fits'
56475,NULL,200.5,'bpm/DECamMasterCal_56475','11','DECam_Master_20130716_cd_11.fits'
56475,NULL,200.5,'bpm/DECamMasterCal_56475','12','DECam_Master_20130716_cd_12.fits'
56475,NULL,200.5,'bpm/DECamMasterCal_56475','13','DECam_Master_20130716_cd_13.fits'
56475,NULL,200.5,'bpm/DECamMasterCal_56475','14','DECam_Master_20130716_cd_14.fits'
56475,NULL,200.5,'bpm/DECamMasterCal_56475','15','DECam_Master_20130716_cd_15.fits'
56475,NULL,200.5,'bpm/DECamMasterCal_56475','16','DECam_Master_20130716_cd_16.fits'
56475,NULL,200.5,'bpm/DECamMasterCal_56475','17','DECam_Master_20130716_cd_17.fits'
56475,NULL,200.5,'bpm/DECamMasterCal_56475','18','DECam_Master_20130716_cd_18.fits'
56475,NULL,200.5,'bpm/DECamMasterCal_56475','19','DECam_Master_20130716_cd_19.fits'
56475,NULL,200.5,'bpm/DECamMasterCal_56475','20','DECam_Master_20130716_cd_20.fits'
56475,NULL,200.5,'bpm/DECamMasterCal_56475','21','DECam_Master_20130716_cd_21.fits'
56475,NULL,200.5,'bpm/DECamMasterCal_56475','22','DECam_Master_20130716_cd_22.fits'
56475,NULL,200.5,'bpm/DECamMasterCal_56475','23','DECam_Master_20130716_cd_23.fits'
56475,NULL,200.5,'bpm/DECamMasterCal_56475','24','DECam_Master_20130716_cd_24.fits'
56475,NULL,200.5,'bpm/DECamMasterCal_56475','25','DECam_Master_20130716_cd_25.fits'
56475,NULL,200.5,'bpm/DECamMasterCal_56475','26','DECam_Master_20130716_cd_26.fits'
56475,NULL,200.5,'bpm/DECamMasterCal_56475','27','DECam_Master_20130716_cd_27.fits'
56475,NULL,200.5,'bpm/DECamMasterCal_56475','28','DECam_Master_20130716_cd_28.fits'
56475,NULL,200.5,'bpm/DECamMasterCal_56475','29','DECam_Master_20130716_cd_29.fits'
56475,NULL,200.5,'bpm/DECamMasterCal_56475','30','DECam_Master_20130716_cd_30.fits'
56475,NULL,200.5,'bpm/DECamMasterCal_56475','31','DECam_Master_20130716_cd_31.fits'
56475,NULL,200.5,'bpm/DECamMasterCal_56475','32','DECam_Master_20130716_cd_32.fits'
56475,NULL,200.5,'bpm/DECamMasterCal_56475','33','DECam_Master_20130716_cd_33.fits'
56475,NULL,200.5,'bpm/DECamMasterCal_56475','34','DECam_Master_20130716_cd_34.fits'
56475,NULL,200.5,'bpm/DECamMasterCal_56475','35','DECam_Master_20130716_cd_35.fits'
56475,NULL,200.5,'bpm/DECamMasterCal_56475','36','DECam_Master_20130716_cd_36.fits'
56475,NULL,200.5,'bpm/DECamMasterCal_56475','37','DECam_Master_20130716_cd_37.fits'
56475,NULL,200.5,'bpm/DECamMasterCal_56475','38','DECam_Master_20130716_cd_38.fits'
56475,NULL,200.5,'bpm/DECamMasterCal_56475','39','DECam_Master_20130716_cd_39.fits'
56475,NULL,200.5,'bpm/DECamMasterCal_56475','40','DECam_Master_20130716_cd_40.fits'
56475,NULL,200.5,'bpm/DECamMasterCal_56475','41','DECam_Master_20130716_cd_41.fits'
56475,NULL,200.5,'bpm/DECamMasterCal_56475','42','DECam_Master_20130716_cd_42.fits'
56475,NULL,200.5,'bpm/DECamMasterCal_56475','43','DECam_Master_20130716_cd_43.fits'
56475,NULL,200.5,'bpm/DECamMasterCal_56475','44','DECam_Master_20130716_cd_44.fits'
56475,NULL,200.5,'bpm/DECamMasterCal_56475','45','DECam_Master_20130716_cd_45.fits'
56475,NULL,200.5,'bpm/DECamMasterCal_56475','46','DECam_Master_20130716_cd_46.fits'
56475,NULL,200.5,'bpm/DECamMasterCal_56475','47','DECam_Master_20130716_cd_47.fits'
56475,NULL,200.5,'bpm/DECamMasterCal_56475','48','DECam_Master_20130716_cd_48.fits'
56475,NULL,200.5,'bpm/DECamMasterCal_56475','49','DECam_Master_20130716_cd_49.fits'
56475,NULL,200.5,'bpm/DECamMasterCal_56475','50','DECam_Master_20130716_cd_50.fits'
56475,NULL,200.5,'bpm/DECamMasterCal_56475','51','DECam_Master_20130716_cd_51.fits'
56475,NULL,200.5,'bpm/DECamMasterCal_56475','52','DECam_Master_20130716_cd_52.fits'
56475,NULL,200.5,'bpm/DECamMasterCal_56475','53','DECam_Master_20130716_cd_53.fits'
56475,NULL,200.5,'bpm/DECamMasterCal_56475','54','DECam_Master_20130716_cd_54.fits'
56475,NULL,200.5,'bpm/DECamMasterCal_56475','55','DECam_Master_20130716_cd_55.fits'
56475,NULL,200.5,'bpm/DECamMasterCal_56475','56','DECam_Master_20130716_cd_56.fits'
56475,NULL,200.5,'bpm/DECamMasterCal_56475','57','DECam_Master_20130716_cd_57.fits'
56475,NULL,200.5,'bpm/DECamMasterCal_56475','58','DECam_Master_20130716_cd_58.fits'
56475,NULL,200.5,'bpm/DECamMasterCal_56475','59','DECam_Master_20130716_cd_59.fits'
56475,NULL,200.5,'bpm/DECamMasterCal_56475','60','DECam_Master_20130716_cd_60.fits'
56475,NULL,200.5,'bpm/DECamMasterCal_56475','61','DECam_Master_20130716_cd_61.fits'
56475,NULL,200.5,'bpm/DECamMasterCal_56475','62','DECam_Master_20130716_cd_62.fits'
56876,-200.5,450.5,'bpm/DECamMasterCal_56876','01','DECam_Master_20140209v2_cd_01.fits'
56876,-200.5,450.5,'bpm/DECamMasterCal_56876','02','DECam_Master_20140209v2_cd_02.fits'
56876,-200.5,450.5,'bpm/DECamMasterCal_56876','03','DECam_Master_20140209v2_cd_03.fits'
56876,-200.5,450.5,'bpm/DECamMasterCal_56876','04','DECam_Master_20140209v2_cd_04.fits'
56876,-200.5,450.5,'bpm/DECamMasterCal_56876','05','DECam_Master_20140209v2_cd_05.fits'
56876,-200.5,450.5,'bpm/DECamMasterCal_56876','06','DECam_Master_20140209v2_cd_06.fits'
56876,-200.5,450.5,'bpm/DECamMasterCal_56876','07','DECam_Master_20140209v2_cd_07.fits'
56876,-200.5,450.5,'bpm/DECamMasterCal_56876','08','DECam_Master_20140209v2_cd_08.fits'
56876,-200.5,450.5,'bpm/DECamMasterCal_56876','09','DECam_Master_20140209v2_cd_09.fits'
56876,-200.5,450.5,'bpm/DECamMasterCal_56876','10','DECam_Master_20140209v2_cd_10.fits'
56876,-200.5,450.5,'bpm/DECamMasterCal_56876','11','DECam_Master_20140209v2_cd_11.fits'
56876,-200.5,450.5,'bpm/DECamMasterCal_56876','12','DECam_Master_20140209v2_cd_12.fits'
56876,-200.5,450.5,'bpm/DECamMasterCal_56876','13','DECam_Master_20140209v2_cd_13.fits'
56876,-200.5,450.5,'bpm/DECamMasterCal_56876','14','DECam_Master_20140209v2_cd_14.fits'
56876,-200.5,450.5,'bpm/DECamMasterCal_56876','15','DECam_Master_20140209v2_cd_15.fits'
56876,-200.5,450.5,'bpm/DECamMasterCal_56876','16','DECam_Master_20140209v2_cd_16.fits'
56876,-200.5,450.5,'bpm/DECamMasterCal_56876','17','DECam_Master_20140209v2_cd_17.fits'
56876,-200.5,450.5,'bpm/DECamMasterCal_56876','18','DECam_Master_20140209v2_cd_18.fits'
56876,-200.5,450.5,'bpm/DECamMasterCal_56876','19','DECam_Master_20140209v2_cd_19.fits'
56876,-200.5,450.5,'bpm/DECamMasterCal_56876','20','DECam_Master_20140209v2_cd_20.fits'
56876,-200.5,450.5,'bpm/DECamMasterCal_56876','21','DECam_Master_20140209v2_cd_21.fits'
56876,-200.5,450.5,'bpm/DECamMasterCal_56876','22','DECam_Master_20140209v2_cd_22.fits'
56876,-200.5,450.5,'bpm/DECamMasterCal_56876','23','DECam_Master_20140209v2_cd_23.fits'
56876,-200.5,450.5,'bpm/DECamMasterCal_56876','24','DECam_Master_20140209v2_cd_24.fits'
56876,-200.5,450.5,'bpm/DECamMasterCal_56876','25','DECam_Master_20140209v2_cd_25.fits'
56876,-200.5,450.5,'bpm/DECamMasterCal_56876','26','DECam_Master_20140209v2_cd_26.fits'
56876,-200.5,450.5,'bpm/DECamMasterCal_56876','27','DECam_Master_20140209v2_cd_27.fits'
56876,-200.5,450.5,'bpm/DECamMasterCal_56876','28','DECam_Master_20140209v2_cd_28.fits'
56876,-200.5,450.5,'bpm/DECamMasterCal_56876','29','DECam_Master_20140209v2_cd_29.fits'
56876,-200.5,450.5,'bpm/DECamMasterCal_56876','30','DECam_Master_20140209v2_cd_30.fits'
56876,-200.5,450.5,'bpm/DECamMasterCal_56876','31','DECam_Master_20140209v2_cd_31.fits'
56876,-200.5,450.5,'bpm/DECamMasterCal_56876','32','DECam_Master_20140209v2_cd_32.fits'
56876,-200.5,450.5,'bpm/DECamMasterCal_56876','33','DECam_Master_20140209v2_cd_33.fits'
56876,-200.5,450.5,'bpm/DECamMasterCal_56876','34','DECam_Master_20140209v2_cd_34.fits'
56876,-200.5,450.5,'bpm/DECamMasterCal_56876','35','DECam_Master_20140209v2_cd_35.fits'
56876,-200.5,450.5,'bpm/DECamMasterCal_56876','36','DECam_Master_20140209v2_cd_36.fits'
56876,-200.5,450.5,'bpm/DECamMasterCal_56876','37','DECam_Master_20140209v2_cd_37.fits'
56876,-200.5,450.5,'bpm/DECamMasterCal_56876','38','DECam_Master_20140209v2_cd_38.fits'
56876,-200.5,450.5,'bpm/DECamMasterCal_56876','39','DECam_Master_20140209v2_cd_39.fits'
56876,-200.5,450.5,'bpm/DECamMasterCal_56876','40','DECam_Master_20140209v2_cd_40.fits'
56876,-200.5,450.5,'bpm/DECamMasterCal_56876','41','DECam_Master_20140209v2_cd_41.fits'
56876,-200.5,450.5,'bpm/DECamMasterCal_56876','42','DECam_Master_20140209v2_cd_42.fits'
56876,-200.5,450.5,'bpm/DECamMasterCal_56876','43','DECam_Master_20140209v2_cd_43.fits'
56876,-200.5,450.5,'bpm/DECamMasterCal_56876','44','DECam_Master_20140209v2_cd_44.fits'
56876,-200.5,450.5,'bpm/DECamMasterCal_56876','45','DECam_Master_20140209v2_cd_45.fits'
56876,-200.5,450.5,'bpm/DECamMasterCal_56876','46','DECam_Master_20140209v2_cd_46.fits'
56876,-200.5,450.5,'bpm/DECamMasterCal_56876','47','DECam_Master_20140209v2_cd_47.fits'
56876,-200.5,450.5,'bpm/DECamMasterCal_56876','48','DECam_Master_20140209v2_cd_48.fits'
56876,-200.5,450.5,'bpm/DECamMasterCal_56876','49','DECam_Master_20140209v2_cd_49.fits'
56876,-200.5,450.5,'bpm/DECamMasterCal_56876','50','DECam_Master_20140209v2_cd_50.fits'
56876,-200.5,450.5,'bpm/DECamMasterCal_56876','51','DECam_Master_20140209v2_cd_51.fits'
56876,-200.5,450.5,'bpm/DECamMasterCal_56876','52','DECam_Master_20140209v2_cd_52.fits'
56876,-200.5,450.5,'bpm/DECamMasterCal_56876','53','DECam_Master_20140209v2_cd_53.fits'
56876,-200.5,450.5,'bpm/DECamMasterCal_56876','54','DECam_Master_20140209v2_cd_54.fits'
56876,-200.5,450.5,'bpm/DECamMasterCal_56876','55','DECam_Master_20140209v2_cd_55.fits'
56876,-200.5,450.5,'bpm/DECamMasterCal_56876','56','DECam_Master_20140209v2_cd_56.fits'
56876,-200.5,450.5,'bpm/DECamMasterCal_56876','57','DECam_Master_20140209v2_cd_57.fits'
56876,-200.5,450.5,'bpm/DECamMasterCal_56876','58','DECam_Master_20140209v2_cd_58.fits'
56876,-200.5,450.5,'bpm/DECamMasterCal_56876','59','DECam_Master_20140209v2_cd_59.fits'
56876,-200.5,450.5,'bpm/DECamMasterCal_56876','60','DECam_Master_20140209v2_cd_60.fits'
56876,-200.5,450.5,'bpm/DECamMasterCal_56876','61','DECam_Master_20140209v2_cd_61.fits'
56876,-200.5,450.5,'bpm/DECamMasterCal_56876','62','DECam_Master_20140209v2_cd_62.fits'
57777,-450.5,NULL,'bpm/DECamMasterCal_57777','01','DECam_Master_20170101_cd_01.fits'
57777,-450.5,NULL,'bpm/DECamMasterCal_57777','02','DECam_Master_20170101_cd_02.fits'
57777,-450.5,NULL,'bpm/DECamMasterCal_57777','03','DECam_Master_20170101_cd_03.fits'
57777,-450.5,NULL,'bpm/DECamMasterCal_57777','04','DECam_Master_20170101_cd_04.fits'
57777,-450.5,NULL,'bpm/DECamMasterCal_57777','05','DECam_Master_20170101_cd_05.fits'
57777,-450.5,NULL,'bpm/DECamMasterCal_57777','06','DECam_Master_20170101_cd_06.fits'
57777,-450.5,NULL,'bpm/DECamMasterCal_57777','07','DECam_Master_20170101_cd_07.fits'
57777,-450.5,NULL,'bpm/DECamMasterCal_57777','08','DECam_Master_20170101_cd_08.fits'
57777,-450.5,NULL,'bpm/DECamMasterCal_57777','09','DECam_Master_20170101_cd_09.fits'
57777,-450.5,NULL,'bpm/DECamMasterCal_57777','10','DECam_Master_20170101_cd_10.fits'
57777,-450.5,NULL,'bpm/DECamMasterCal_57777','11','DECam_Master_20170101_cd_11.fits'
57777,-450.5,NULL,'bpm/DECamMasterCal_57777','12','DECam_Master_20170101_cd_12.fits'
57777,-450.5,NULL,'bpm/DECamMasterCal_57777','13','DECam_Master_20170101_cd_13.fits'
57777,-450.5,NULL,'bpm/DECamMasterCal_57777','14','DECam_Master_20170101_cd_14.fits'
57777,-450.5,NULL,'bpm/DECamMasterCal_57777','15','DECam_Master_20170101_cd_15.fits'
57777,-450.5,NULL,'bpm/DECamMasterCal_57777','16','DECam_Master_20170101_cd_16.fits'
57777,-450.5,NULL,'bpm/DECamMasterCal_57777','17','DECam_Master_20170101_cd_17.fits'
57777,-450.5,NULL,'bpm/DECamMasterCal_57777','18','DECam_Master_20170101_cd_18.fits'
57777,-450.5,NULL,'bpm/DECamMasterCal_57777','19','DECam_Master_20170101_cd_19.fits'
57777,-450.5,NULL,'bpm/DECamMasterCal_57777','20','DECam_Master_20170101_cd_20.fits'
57777,-450.5,NULL,'bpm/DECamMasterCal_57777','21','DECam_Master_20170101_cd_21.fits'
57777,-450.5,NULL,'bpm/DECamMasterCal_57777','22','DECam_Master_20170101_cd_22.fits'
57777,-450.5,NULL,'bpm/DECamMasterCal_57777','23','DECam_Master_20170101_cd_23.fits'
57777,-450.5,NULL,'bpm/DECamMasterCal_57777','24','DECam_Master_20170101_cd_24.fits'
57777,-450.5,NULL,'bpm/DECamMasterCal_57777','25','DECam_Master_20170101_cd_25.fits'
57777,-450.5,NULL,'bpm/DECamMasterCal_57777','26','DECam_Master_20170101_cd_26.fits'
57777,-450.5,NULL,'bpm/DECamMasterCal_57777','27','DECam_Master_20170101_cd_27.fits'
57777,-450.5,NULL,'bpm/DECamMasterCal_57777','28','DECam_Master_20170101_cd_28.fits'
57777,-450.5,NULL,'bpm/DECamMasterCal_57777','29','DECam_Master_20170101_cd_29.fits'
57777,-450.5,NULL,'bpm/DECamMasterCal_57777','30','DECam_Master_20170101_cd_30.fits'
57777,-450.5,NULL,'bpm/DECamMasterCal_57777','31','DECam_Master_20170101_cd_31.fits'
57777,-450.5,NULL,'bpm/DECamMasterCal_57777','32','DECam_Master_20170101_cd_32.fits'
57777,-450.5,NULL,'bpm/DECamMasterCal_57777','33','DECam_Master_20170101_cd_33.fits'
57777,-450.5,NULL,'bpm/DECamMasterCal_57777','34','DECam_Master_20170101_cd_34.fits'
57777,-450.5,NULL,'bpm/DECamMasterCal_57777','35','DECam_Master_20170101_cd_35.fits'
57777,-450.5,NULL,'bpm/DECamMasterCal_57777','36','DECam_Master_20170101_cd_36.fits'
57777,-450.5,NULL,'bpm/DECamMasterCal_57777','37','DECam_Master_20170101_cd_37.fits'
57777,-450.5,NULL,'bpm/DECamMasterCal_57777','38','DECam_Master_20170101_cd_38.fits'
57777,-450.5,NULL,'bpm/DECamMasterCal_57777','39','DECam_Master_20170101_cd_39.fits'
57777,-450.5,NULL,'bpm/DECamMasterCal_57777','40','DECam_Master_20170101_cd_40.fits'
57777,-450.5,NULL,'bpm/DECamMasterCal_57777','41','DECam_Master_20170101_cd_41.fits'
57777,-450.5,NULL,'bpm/DECamMasterCal_57777','42','DECam_Master_20170101_cd_42.fits'
57777,-450.5,NULL,'bpm/DECamMasterCal_57777','43','DECam_Master_20170101_cd_43.fits'
57777,-450.5,NULL,'bpm/DECamMasterCal_57777','44','DECam_Master_20170101_cd_44.fits'
57777,-450.5,NULL,'bpm/DECamMasterCal_57777','45','DECam_Master_20170101_cd_45.fits'
57777,-450.5,NULL,'bpm/DECamMasterCal_57777','46','DECam_Master_20170101_cd_46.fits'
57777,-450.5,NULL,'bpm/DECamMasterCal_57777','47','DECam_Master_20170101_cd_47.fits'
57777,-450.5,NULL,'bpm/DECamMasterCal_57777','48','DECam_Master_20170101_cd_48.fits'
57777,-450.5,NULL,'bpm/DECamMasterCal_57777','49','DECam_Master_20170101_cd_49.fits'
57777,-450.5,NULL,'bpm/DECamMasterCal_57777','50','DECam_Master_20170101_cd_50.fits'
57777,-450.5,NULL,'bpm/DECamMasterCal_57777','51','DECam_Master_20170101_cd_51.fits'
57777,-450.5,NULL,'bpm/DECamMasterCal_57777','52','DECam_Master_20170101_cd_52.fits'
57777,-450.5,NULL,'bpm/DECamMasterCal_57777','53','DECam_Master_20170101_cd_53.fits'
57777,-450.5,NULL,'bpm/DECamMasterCal_57777','54','DECam_Master_20170101_cd_54.fits'
57777,-450.5,NULL,'bpm/DECamMasterCal_57777','55','DECam_Master_20170101_cd_55.fits'
57777,-450.5,NULL,'bpm/DECamMasterCal_57777','56','DECam_Master_20170101_cd_56.fits'
57777,-450.5,NULL,'bpm/DECamMasterCal_57777','57','DECam_Master_20170101_cd_57.fits'
57777,-450.5,NULL,'bpm/DECamMasterCal_57777','58','DECam_Master_20170101_cd_58.fits'
57777,-450.5,NULL,'bpm/DECamMasterCal_57777','59','DECam_Master_20170101_cd_59.fits'
57777,-450.5,NULL,'bpm/DECamMasterCal_57777','60','DECam_Master_20170101_cd_60.fits'
57777,-450.5,NULL,'bpm/DECamMasterCal_57777','61','DECam_Master_20170101_cd_61.fits'
57777,-450.5,NULL,'bpm/DECamMasterCal_57777','62','DECam_Master_20170101_cd_62.fits'
