# Amp match

CLASS = "'ampmatch'"
DATATYPE = "'keyword'"

IMAGEID,VALUE

\'01','B'
\'02','B'
\'03','B'
\'04','B'
#\'05','B'
#\'06','B'
\'07','B'
\'08','B'
\'09','B'
\'10','B'
\'11','B'
\'12','B'
\'13','B'
\'14','B'
\'15','B'
\'16','B'
\'17','B'
\'18','B'
\'19','B'
\'20','B'
\'21','B'
\'22','B'
\'23','B'
\'24','B'
\'25','B'
\'26','B'
\'27','B'
#\'28','B'
\'29','B'
\'30','B'
\'31','B'
\'32','A'
\'33','A'
\'34','A'
#\'35','A'
\'36','A'
\'37','A'
\'38','A'
\'39','A'
\'40','A'
\'41','A'
\'42','A'
\'43','A'
\'44','A'
\'45','A'
\'46','A'
#\'47','A'
\'48','A'
\'49','A'
\'50','A'
\'51','A'
\'52','A'
\'53','A'
#\'54','A'
\'55','A'
\'56','A'
#\'57','A'
#\'58','A'
\'59','A'
\'60','A'
\'61','A'
\'62','A'
