# Common values.
DATATYPE = "'keyword'"

CLASS,MJD,MJDWIN1,MJDWIN2,FILTER,VALUE

#\'maskN',56700,NULL,0,'r DECam SDSS c0002 6415.0 1480.0','[*,101:4096]'
#\'maskS',56700,NULL,0,'r DECam SDSS c0002 6415.0 1480.0','[*,1:3996]'
#\'maskN',57235,0,NULL,'r DECam SDSS c0002 6415.0 1480.0','[31:2018,*]'
#\'maskS',57235,0,NULL,'r DECam SDSS c0002 6415.0 1480.0','[31:2018,*]'
#\'maskN',57235,0,NULL,'i DECam SDSS c0003 7835.0 1470.0','[31:2018,*]'
#\'maskS',57235,0,NULL,'i DECam SDSS c0003 7835.0 1470.0','[31:2018,*]'
#\'maskN',57235,0,NULL,'VR DECam c0007 6300.0 2600.0','[31:2018,*]'
#\'maskS',57235,0,NULL,'VR DECam c0007 6300.0 2600.0','[31:2018,*]'
#\'maskN',57235,0,NULL,'z DECam SDSS c0004 9260.0 1520.0','[31:2018,*]'
#\'maskS',57235,0,NULL,'z DECam SDSS c0004 9260.0 1520.0','[31:2018,*]'
