# LED on

CLASS = "'led'"
DATATYPE = "'keyword'"

MJD,MJDWIN1,MJDWIN2,IMAGEID,MATCH,VALUE

58067.5,0,2,'46','zero','794 2605'
58067.5,0,2,'46','dflat','794 2605'
58067.5,0,2,'46','object','794 2605'

58071.5,0,50,'46','zero','794 2605'
58072.5,0,50,'46','dflat','794 2605'
58071.5,0,50,'46','object','794 2605'
