# WCS coefficients

CLASS = "'wcs'"
DIR = "'wcs'"
DATATYPE = "'file'"
QUALITY = 0

MJD,FILTER,IMAGEID,VALUE

56876,'g','01','decam_pvmodel_20131115_g_01.ahead'
56876,'g','02','decam_pvmodel_20131115_g_02.ahead'
56876,'g','03','decam_pvmodel_20131115_g_03.ahead'
56876,'g','04','decam_pvmodel_20131115_g_04.ahead'
56876,'g','05','decam_pvmodel_20131115_g_05.ahead'
56876,'g','06','decam_pvmodel_20131115_g_06.ahead'
56876,'g','07','decam_pvmodel_20131115_g_07.ahead'
56876,'g','08','decam_pvmodel_20131115_g_08.ahead'
56876,'g','09','decam_pvmodel_20131115_g_09.ahead'
56876,'g','10','decam_pvmodel_20131115_g_10.ahead'
56876,'g','11','decam_pvmodel_20131115_g_11.ahead'
56876,'g','12','decam_pvmodel_20131115_g_12.ahead'
56876,'g','13','decam_pvmodel_20131115_g_13.ahead'
56876,'g','14','decam_pvmodel_20131115_g_14.ahead'
56876,'g','15','decam_pvmodel_20131115_g_15.ahead'
56876,'g','16','decam_pvmodel_20131115_g_16.ahead'
56876,'g','17','decam_pvmodel_20131115_g_17.ahead'
56876,'g','18','decam_pvmodel_20131115_g_18.ahead'
56876,'g','19','decam_pvmodel_20131115_g_19.ahead'
56876,'g','20','decam_pvmodel_20131115_g_20.ahead'
56876,'g','21','decam_pvmodel_20131115_g_21.ahead'
56876,'g','22','decam_pvmodel_20131115_g_22.ahead'
56876,'g','23','decam_pvmodel_20131115_g_23.ahead'
56876,'g','24','decam_pvmodel_20131115_g_24.ahead'
56876,'g','25','decam_pvmodel_20131115_g_25.ahead'
56876,'g','26','decam_pvmodel_20131115_g_26.ahead'
56876,'g','27','decam_pvmodel_20131115_g_27.ahead'
56876,'g','28','decam_pvmodel_20131115_g_28.ahead'
56876,'g','29','decam_pvmodel_20131115_g_29.ahead'
56876,'g','30','decam_pvmodel_20131115_g_30.ahead'
56876,'g','31','decam_pvmodel_20131115_g_31.ahead'
56876,'g','32','decam_pvmodel_20131115_g_32.ahead'
56876,'g','33','decam_pvmodel_20131115_g_33.ahead'
56876,'g','34','decam_pvmodel_20131115_g_34.ahead'
56876,'g','35','decam_pvmodel_20131115_g_35.ahead'
56876,'g','36','decam_pvmodel_20131115_g_36.ahead'
56876,'g','37','decam_pvmodel_20131115_g_37.ahead'
56876,'g','38','decam_pvmodel_20131115_g_38.ahead'
56876,'g','39','decam_pvmodel_20131115_g_39.ahead'
56876,'g','40','decam_pvmodel_20131115_g_40.ahead'
56876,'g','41','decam_pvmodel_20131115_g_41.ahead'
56876,'g','42','decam_pvmodel_20131115_g_42.ahead'
56876,'g','43','decam_pvmodel_20131115_g_43.ahead'
56876,'g','44','decam_pvmodel_20131115_g_44.ahead'
56876,'g','45','decam_pvmodel_20131115_g_45.ahead'
56876,'g','46','decam_pvmodel_20131115_g_46.ahead'
56876,'g','47','decam_pvmodel_20131115_g_47.ahead'
56876,'g','48','decam_pvmodel_20131115_g_48.ahead'
56876,'g','49','decam_pvmodel_20131115_g_49.ahead'
56876,'g','50','decam_pvmodel_20131115_g_50.ahead'
56876,'g','51','decam_pvmodel_20131115_g_51.ahead'
56876,'g','52','decam_pvmodel_20131115_g_52.ahead'
56876,'g','53','decam_pvmodel_20131115_g_53.ahead'
56876,'g','54','decam_pvmodel_20131115_g_54.ahead'
56876,'g','55','decam_pvmodel_20131115_g_55.ahead'
56876,'g','56','decam_pvmodel_20131115_g_56.ahead'
56876,'g','57','decam_pvmodel_20131115_g_57.ahead'
56876,'g','58','decam_pvmodel_20131115_g_58.ahead'
56876,'g','59','decam_pvmodel_20131115_g_59.ahead'
56876,'g','60','decam_pvmodel_20131115_g_60.ahead'
56876,'g','61','decam_pvmodel_20131115_g_61.ahead'
56876,'g','62','decam_pvmodel_20131115_g_62.ahead'
56876,'i','01','decam_pvmodel_20131115_i_01.ahead'
56876,'i','02','decam_pvmodel_20131115_i_02.ahead'
56876,'i','03','decam_pvmodel_20131115_i_03.ahead'
56876,'i','04','decam_pvmodel_20131115_i_04.ahead'
56876,'i','05','decam_pvmodel_20131115_i_05.ahead'
56876,'i','06','decam_pvmodel_20131115_i_06.ahead'
56876,'i','07','decam_pvmodel_20131115_i_07.ahead'
56876,'i','08','decam_pvmodel_20131115_i_08.ahead'
56876,'i','09','decam_pvmodel_20131115_i_09.ahead'
56876,'i','10','decam_pvmodel_20131115_i_10.ahead'
56876,'i','11','decam_pvmodel_20131115_i_11.ahead'
56876,'i','12','decam_pvmodel_20131115_i_12.ahead'
56876,'i','13','decam_pvmodel_20131115_i_13.ahead'
56876,'i','14','decam_pvmodel_20131115_i_14.ahead'
56876,'i','15','decam_pvmodel_20131115_i_15.ahead'
56876,'i','16','decam_pvmodel_20131115_i_16.ahead'
56876,'i','17','decam_pvmodel_20131115_i_17.ahead'
56876,'i','18','decam_pvmodel_20131115_i_18.ahead'
56876,'i','19','decam_pvmodel_20131115_i_19.ahead'
56876,'i','20','decam_pvmodel_20131115_i_20.ahead'
56876,'i','21','decam_pvmodel_20131115_i_21.ahead'
56876,'i','22','decam_pvmodel_20131115_i_22.ahead'
56876,'i','23','decam_pvmodel_20131115_i_23.ahead'
56876,'i','24','decam_pvmodel_20131115_i_24.ahead'
56876,'i','25','decam_pvmodel_20131115_i_25.ahead'
56876,'i','26','decam_pvmodel_20131115_i_26.ahead'
56876,'i','27','decam_pvmodel_20131115_i_27.ahead'
56876,'i','28','decam_pvmodel_20131115_i_28.ahead'
56876,'i','29','decam_pvmodel_20131115_i_29.ahead'
56876,'i','30','decam_pvmodel_20131115_i_30.ahead'
56876,'i','31','decam_pvmodel_20131115_i_31.ahead'
56876,'i','32','decam_pvmodel_20131115_i_32.ahead'
56876,'i','33','decam_pvmodel_20131115_i_33.ahead'
56876,'i','34','decam_pvmodel_20131115_i_34.ahead'
56876,'i','35','decam_pvmodel_20131115_i_35.ahead'
56876,'i','36','decam_pvmodel_20131115_i_36.ahead'
56876,'i','37','decam_pvmodel_20131115_i_37.ahead'
56876,'i','38','decam_pvmodel_20131115_i_38.ahead'
56876,'i','39','decam_pvmodel_20131115_i_39.ahead'
56876,'i','40','decam_pvmodel_20131115_i_40.ahead'
56876,'i','41','decam_pvmodel_20131115_i_41.ahead'
56876,'i','42','decam_pvmodel_20131115_i_42.ahead'
56876,'i','43','decam_pvmodel_20131115_i_43.ahead'
56876,'i','44','decam_pvmodel_20131115_i_44.ahead'
56876,'i','45','decam_pvmodel_20131115_i_45.ahead'
56876,'i','46','decam_pvmodel_20131115_i_46.ahead'
56876,'i','47','decam_pvmodel_20131115_i_47.ahead'
56876,'i','48','decam_pvmodel_20131115_i_48.ahead'
56876,'i','49','decam_pvmodel_20131115_i_49.ahead'
56876,'i','50','decam_pvmodel_20131115_i_50.ahead'
56876,'i','51','decam_pvmodel_20131115_i_51.ahead'
56876,'i','52','decam_pvmodel_20131115_i_52.ahead'
56876,'i','53','decam_pvmodel_20131115_i_53.ahead'
56876,'i','54','decam_pvmodel_20131115_i_54.ahead'
56876,'i','55','decam_pvmodel_20131115_i_55.ahead'
56876,'i','56','decam_pvmodel_20131115_i_56.ahead'
56876,'i','57','decam_pvmodel_20131115_i_57.ahead'
56876,'i','58','decam_pvmodel_20131115_i_58.ahead'
56876,'i','59','decam_pvmodel_20131115_i_59.ahead'
56876,'i','60','decam_pvmodel_20131115_i_60.ahead'
56876,'i','61','decam_pvmodel_20131115_i_61.ahead'
56876,'i','62','decam_pvmodel_20131115_i_62.ahead'
56876,'N662','01','decam_pvmodel_20131115_r_01.ahead'
56876,'N662','02','decam_pvmodel_20131115_r_02.ahead'
56876,'N662','03','decam_pvmodel_20131115_r_03.ahead'
56876,'N662','04','decam_pvmodel_20131115_r_04.ahead'
56876,'N662','05','decam_pvmodel_20131115_r_05.ahead'
56876,'N662','06','decam_pvmodel_20131115_r_06.ahead'
56876,'N662','07','decam_pvmodel_20131115_r_07.ahead'
56876,'N662','08','decam_pvmodel_20131115_r_08.ahead'
56876,'N662','09','decam_pvmodel_20131115_r_09.ahead'
56876,'N662','10','decam_pvmodel_20131115_r_10.ahead'
56876,'N662','11','decam_pvmodel_20131115_r_11.ahead'
56876,'N662','12','decam_pvmodel_20131115_r_12.ahead'
56876,'N662','13','decam_pvmodel_20131115_r_13.ahead'
56876,'N662','14','decam_pvmodel_20131115_r_14.ahead'
56876,'N662','15','decam_pvmodel_20131115_r_15.ahead'
56876,'N662','16','decam_pvmodel_20131115_r_16.ahead'
56876,'N662','17','decam_pvmodel_20131115_r_17.ahead'
56876,'N662','18','decam_pvmodel_20131115_r_18.ahead'
56876,'N662','19','decam_pvmodel_20131115_r_19.ahead'
56876,'N662','20','decam_pvmodel_20131115_r_20.ahead'
56876,'N662','21','decam_pvmodel_20131115_r_21.ahead'
56876,'N662','22','decam_pvmodel_20131115_r_22.ahead'
56876,'N662','23','decam_pvmodel_20131115_r_23.ahead'
56876,'N662','24','decam_pvmodel_20131115_r_24.ahead'
56876,'N662','25','decam_pvmodel_20131115_r_25.ahead'
56876,'N662','26','decam_pvmodel_20131115_r_26.ahead'
56876,'N662','27','decam_pvmodel_20131115_r_27.ahead'
56876,'N662','28','decam_pvmodel_20131115_r_28.ahead'
56876,'N662','29','decam_pvmodel_20131115_r_29.ahead'
56876,'N662','30','decam_pvmodel_20131115_r_30.ahead'
56876,'N662','31','decam_pvmodel_20131115_r_31.ahead'
56876,'N662','32','decam_pvmodel_20131115_r_32.ahead'
56876,'N662','33','decam_pvmodel_20131115_r_33.ahead'
56876,'N662','34','decam_pvmodel_20131115_r_34.ahead'
56876,'N662','35','decam_pvmodel_20131115_r_35.ahead'
56876,'N662','36','decam_pvmodel_20131115_r_36.ahead'
56876,'N662','37','decam_pvmodel_20131115_r_37.ahead'
56876,'N662','38','decam_pvmodel_20131115_r_38.ahead'
56876,'N662','39','decam_pvmodel_20131115_r_39.ahead'
56876,'N662','40','decam_pvmodel_20131115_r_40.ahead'
56876,'N662','41','decam_pvmodel_20131115_r_41.ahead'
56876,'N662','42','decam_pvmodel_20131115_r_42.ahead'
56876,'N662','43','decam_pvmodel_20131115_r_43.ahead'
56876,'N662','44','decam_pvmodel_20131115_r_44.ahead'
56876,'N662','45','decam_pvmodel_20131115_r_45.ahead'
56876,'N662','46','decam_pvmodel_20131115_r_46.ahead'
56876,'N662','47','decam_pvmodel_20131115_r_47.ahead'
56876,'N662','48','decam_pvmodel_20131115_r_48.ahead'
56876,'N662','49','decam_pvmodel_20131115_r_49.ahead'
56876,'N662','50','decam_pvmodel_20131115_r_50.ahead'
56876,'N662','51','decam_pvmodel_20131115_r_51.ahead'
56876,'N662','52','decam_pvmodel_20131115_r_52.ahead'
56876,'N662','53','decam_pvmodel_20131115_r_53.ahead'
56876,'N662','54','decam_pvmodel_20131115_r_54.ahead'
56876,'N662','55','decam_pvmodel_20131115_r_55.ahead'
56876,'N662','56','decam_pvmodel_20131115_r_56.ahead'
56876,'N662','57','decam_pvmodel_20131115_r_57.ahead'
56876,'N662','58','decam_pvmodel_20131115_r_58.ahead'
56876,'N662','59','decam_pvmodel_20131115_r_59.ahead'
56876,'N662','60','decam_pvmodel_20131115_r_60.ahead'
56876,'N662','61','decam_pvmodel_20131115_r_61.ahead'
56876,'N662','62','decam_pvmodel_20131115_r_62.ahead'
56876,'N964','01','decam_pvmodel_20131115_z_01.ahead'
56876,'N964','02','decam_pvmodel_20131115_z_02.ahead'
56876,'N964','03','decam_pvmodel_20131115_z_03.ahead'
56876,'N964','04','decam_pvmodel_20131115_z_04.ahead'
56876,'N964','05','decam_pvmodel_20131115_z_05.ahead'
56876,'N964','06','decam_pvmodel_20131115_z_06.ahead'
56876,'N964','07','decam_pvmodel_20131115_z_07.ahead'
56876,'N964','08','decam_pvmodel_20131115_z_08.ahead'
56876,'N964','09','decam_pvmodel_20131115_z_09.ahead'
56876,'N964','10','decam_pvmodel_20131115_z_10.ahead'
56876,'N964','11','decam_pvmodel_20131115_z_11.ahead'
56876,'N964','12','decam_pvmodel_20131115_z_12.ahead'
56876,'N964','13','decam_pvmodel_20131115_z_13.ahead'
56876,'N964','14','decam_pvmodel_20131115_z_14.ahead'
56876,'N964','15','decam_pvmodel_20131115_z_15.ahead'
56876,'N964','16','decam_pvmodel_20131115_z_16.ahead'
56876,'N964','17','decam_pvmodel_20131115_z_17.ahead'
56876,'N964','18','decam_pvmodel_20131115_z_18.ahead'
56876,'N964','19','decam_pvmodel_20131115_z_19.ahead'
56876,'N964','20','decam_pvmodel_20131115_z_20.ahead'
56876,'N964','21','decam_pvmodel_20131115_z_21.ahead'
56876,'N964','22','decam_pvmodel_20131115_z_22.ahead'
56876,'N964','23','decam_pvmodel_20131115_z_23.ahead'
56876,'N964','24','decam_pvmodel_20131115_z_24.ahead'
56876,'N964','25','decam_pvmodel_20131115_z_25.ahead'
56876,'N964','26','decam_pvmodel_20131115_z_26.ahead'
56876,'N964','27','decam_pvmodel_20131115_z_27.ahead'
56876,'N964','28','decam_pvmodel_20131115_z_28.ahead'
56876,'N964','29','decam_pvmodel_20131115_z_29.ahead'
56876,'N964','30','decam_pvmodel_20131115_z_30.ahead'
56876,'N964','31','decam_pvmodel_20131115_z_31.ahead'
56876,'N964','32','decam_pvmodel_20131115_z_32.ahead'
56876,'N964','33','decam_pvmodel_20131115_z_33.ahead'
56876,'N964','34','decam_pvmodel_20131115_z_34.ahead'
56876,'N964','35','decam_pvmodel_20131115_z_35.ahead'
56876,'N964','36','decam_pvmodel_20131115_z_36.ahead'
56876,'N964','37','decam_pvmodel_20131115_z_37.ahead'
56876,'N964','38','decam_pvmodel_20131115_z_38.ahead'
56876,'N964','39','decam_pvmodel_20131115_z_39.ahead'
56876,'N964','40','decam_pvmodel_20131115_z_40.ahead'
56876,'N964','41','decam_pvmodel_20131115_z_41.ahead'
56876,'N964','42','decam_pvmodel_20131115_z_42.ahead'
56876,'N964','43','decam_pvmodel_20131115_z_43.ahead'
56876,'N964','44','decam_pvmodel_20131115_z_44.ahead'
56876,'N964','45','decam_pvmodel_20131115_z_45.ahead'
56876,'N964','46','decam_pvmodel_20131115_z_46.ahead'
56876,'N964','47','decam_pvmodel_20131115_z_47.ahead'
56876,'N964','48','decam_pvmodel_20131115_z_48.ahead'
56876,'N964','49','decam_pvmodel_20131115_z_49.ahead'
56876,'N964','50','decam_pvmodel_20131115_z_50.ahead'
56876,'N964','51','decam_pvmodel_20131115_z_51.ahead'
56876,'N964','52','decam_pvmodel_20131115_z_52.ahead'
56876,'N964','53','decam_pvmodel_20131115_z_53.ahead'
56876,'N964','54','decam_pvmodel_20131115_z_54.ahead'
56876,'N964','55','decam_pvmodel_20131115_z_55.ahead'
56876,'N964','56','decam_pvmodel_20131115_z_56.ahead'
56876,'N964','57','decam_pvmodel_20131115_z_57.ahead'
56876,'N964','58','decam_pvmodel_20131115_z_58.ahead'
56876,'N964','59','decam_pvmodel_20131115_z_59.ahead'
56876,'N964','60','decam_pvmodel_20131115_z_60.ahead'
56876,'N964','61','decam_pvmodel_20131115_z_61.ahead'
56876,'N964','62','decam_pvmodel_20131115_z_62.ahead'
56876,'r','01','decam_pvmodel_20131115_r_01.ahead'
56876,'r','02','decam_pvmodel_20131115_r_02.ahead'
56876,'r','03','decam_pvmodel_20131115_r_03.ahead'
56876,'r','04','decam_pvmodel_20131115_r_04.ahead'
56876,'r','05','decam_pvmodel_20131115_r_05.ahead'
56876,'r','06','decam_pvmodel_20131115_r_06.ahead'
56876,'r','07','decam_pvmodel_20131115_r_07.ahead'
56876,'r','08','decam_pvmodel_20131115_r_08.ahead'
56876,'r','09','decam_pvmodel_20131115_r_09.ahead'
56876,'r','10','decam_pvmodel_20131115_r_10.ahead'
56876,'r','11','decam_pvmodel_20131115_r_11.ahead'
56876,'r','12','decam_pvmodel_20131115_r_12.ahead'
56876,'r','13','decam_pvmodel_20131115_r_13.ahead'
56876,'r','14','decam_pvmodel_20131115_r_14.ahead'
56876,'r','15','decam_pvmodel_20131115_r_15.ahead'
56876,'r','16','decam_pvmodel_20131115_r_16.ahead'
56876,'r','17','decam_pvmodel_20131115_r_17.ahead'
56876,'r','18','decam_pvmodel_20131115_r_18.ahead'
56876,'r','19','decam_pvmodel_20131115_r_19.ahead'
56876,'r','20','decam_pvmodel_20131115_r_20.ahead'
56876,'r','21','decam_pvmodel_20131115_r_21.ahead'
56876,'r','22','decam_pvmodel_20131115_r_22.ahead'
56876,'r','23','decam_pvmodel_20131115_r_23.ahead'
56876,'r','24','decam_pvmodel_20131115_r_24.ahead'
56876,'r','25','decam_pvmodel_20131115_r_25.ahead'
56876,'r','26','decam_pvmodel_20131115_r_26.ahead'
56876,'r','27','decam_pvmodel_20131115_r_27.ahead'
56876,'r','28','decam_pvmodel_20131115_r_28.ahead'
56876,'r','29','decam_pvmodel_20131115_r_29.ahead'
56876,'r','30','decam_pvmodel_20131115_r_30.ahead'
56876,'r','31','decam_pvmodel_20131115_r_31.ahead'
56876,'r','32','decam_pvmodel_20131115_r_32.ahead'
56876,'r','33','decam_pvmodel_20131115_r_33.ahead'
56876,'r','34','decam_pvmodel_20131115_r_34.ahead'
56876,'r','35','decam_pvmodel_20131115_r_35.ahead'
56876,'r','36','decam_pvmodel_20131115_r_36.ahead'
56876,'r','37','decam_pvmodel_20131115_r_37.ahead'
56876,'r','38','decam_pvmodel_20131115_r_38.ahead'
56876,'r','39','decam_pvmodel_20131115_r_39.ahead'
56876,'r','40','decam_pvmodel_20131115_r_40.ahead'
56876,'r','41','decam_pvmodel_20131115_r_41.ahead'
56876,'r','42','decam_pvmodel_20131115_r_42.ahead'
56876,'r','43','decam_pvmodel_20131115_r_43.ahead'
56876,'r','44','decam_pvmodel_20131115_r_44.ahead'
56876,'r','45','decam_pvmodel_20131115_r_45.ahead'
56876,'r','46','decam_pvmodel_20131115_r_46.ahead'
56876,'r','47','decam_pvmodel_20131115_r_47.ahead'
56876,'r','48','decam_pvmodel_20131115_r_48.ahead'
56876,'r','49','decam_pvmodel_20131115_r_49.ahead'
56876,'r','50','decam_pvmodel_20131115_r_50.ahead'
56876,'r','51','decam_pvmodel_20131115_r_51.ahead'
56876,'r','52','decam_pvmodel_20131115_r_52.ahead'
56876,'r','53','decam_pvmodel_20131115_r_53.ahead'
56876,'r','54','decam_pvmodel_20131115_r_54.ahead'
56876,'r','55','decam_pvmodel_20131115_r_55.ahead'
56876,'r','56','decam_pvmodel_20131115_r_56.ahead'
56876,'r','57','decam_pvmodel_20131115_r_57.ahead'
56876,'r','58','decam_pvmodel_20131115_r_58.ahead'
56876,'r','59','decam_pvmodel_20131115_r_59.ahead'
56876,'r','60','decam_pvmodel_20131115_r_60.ahead'
56876,'r','61','decam_pvmodel_20131115_r_61.ahead'
56876,'r','62','decam_pvmodel_20131115_r_62.ahead'
56876,'u','01','decam_pvmodel_20131115_g_01.ahead'
56876,'u','02','decam_pvmodel_20131115_g_02.ahead'
56876,'u','03','decam_pvmodel_20131115_g_03.ahead'
56876,'u','04','decam_pvmodel_20131115_g_04.ahead'
56876,'u','05','decam_pvmodel_20131115_g_05.ahead'
56876,'u','06','decam_pvmodel_20131115_g_06.ahead'
56876,'u','07','decam_pvmodel_20131115_g_07.ahead'
56876,'u','08','decam_pvmodel_20131115_g_08.ahead'
56876,'u','09','decam_pvmodel_20131115_g_09.ahead'
56876,'u','10','decam_pvmodel_20131115_g_10.ahead'
56876,'u','11','decam_pvmodel_20131115_g_11.ahead'
56876,'u','12','decam_pvmodel_20131115_g_12.ahead'
56876,'u','13','decam_pvmodel_20131115_g_13.ahead'
56876,'u','14','decam_pvmodel_20131115_g_14.ahead'
56876,'u','15','decam_pvmodel_20131115_g_15.ahead'
56876,'u','16','decam_pvmodel_20131115_g_16.ahead'
56876,'u','17','decam_pvmodel_20131115_g_17.ahead'
56876,'u','18','decam_pvmodel_20131115_g_18.ahead'
56876,'u','19','decam_pvmodel_20131115_g_19.ahead'
56876,'u','20','decam_pvmodel_20131115_g_20.ahead'
56876,'u','21','decam_pvmodel_20131115_g_21.ahead'
56876,'u','22','decam_pvmodel_20131115_g_22.ahead'
56876,'u','23','decam_pvmodel_20131115_g_23.ahead'
56876,'u','24','decam_pvmodel_20131115_g_24.ahead'
56876,'u','25','decam_pvmodel_20131115_g_25.ahead'
56876,'u','26','decam_pvmodel_20131115_g_26.ahead'
56876,'u','27','decam_pvmodel_20131115_g_27.ahead'
56876,'u','28','decam_pvmodel_20131115_g_28.ahead'
56876,'u','29','decam_pvmodel_20131115_g_29.ahead'
56876,'u','30','decam_pvmodel_20131115_g_30.ahead'
56876,'u','31','decam_pvmodel_20131115_g_31.ahead'
56876,'u','32','decam_pvmodel_20131115_g_32.ahead'
56876,'u','33','decam_pvmodel_20131115_g_33.ahead'
56876,'u','34','decam_pvmodel_20131115_g_34.ahead'
56876,'u','35','decam_pvmodel_20131115_g_35.ahead'
56876,'u','36','decam_pvmodel_20131115_g_36.ahead'
56876,'u','37','decam_pvmodel_20131115_g_37.ahead'
56876,'u','38','decam_pvmodel_20131115_g_38.ahead'
56876,'u','39','decam_pvmodel_20131115_g_39.ahead'
56876,'u','40','decam_pvmodel_20131115_g_40.ahead'
56876,'u','41','decam_pvmodel_20131115_g_41.ahead'
56876,'u','42','decam_pvmodel_20131115_g_42.ahead'
56876,'u','43','decam_pvmodel_20131115_g_43.ahead'
56876,'u','44','decam_pvmodel_20131115_g_44.ahead'
56876,'u','45','decam_pvmodel_20131115_g_45.ahead'
56876,'u','46','decam_pvmodel_20131115_g_46.ahead'
56876,'u','47','decam_pvmodel_20131115_g_47.ahead'
56876,'u','48','decam_pvmodel_20131115_g_48.ahead'
56876,'u','49','decam_pvmodel_20131115_g_49.ahead'
56876,'u','50','decam_pvmodel_20131115_g_50.ahead'
56876,'u','51','decam_pvmodel_20131115_g_51.ahead'
56876,'u','52','decam_pvmodel_20131115_g_52.ahead'
56876,'u','53','decam_pvmodel_20131115_g_53.ahead'
56876,'u','54','decam_pvmodel_20131115_g_54.ahead'
56876,'u','55','decam_pvmodel_20131115_g_55.ahead'
56876,'u','56','decam_pvmodel_20131115_g_56.ahead'
56876,'u','57','decam_pvmodel_20131115_g_57.ahead'
56876,'u','58','decam_pvmodel_20131115_g_58.ahead'
56876,'u','59','decam_pvmodel_20131115_g_59.ahead'
56876,'u','60','decam_pvmodel_20131115_g_60.ahead'
56876,'u','61','decam_pvmodel_20131115_g_61.ahead'
56876,'u','62','decam_pvmodel_20131115_g_62.ahead'
56876,'VR','01','decam_pvmodel_20131115_r_01.ahead'
56876,'VR','02','decam_pvmodel_20131115_r_02.ahead'
56876,'VR','03','decam_pvmodel_20131115_r_03.ahead'
56876,'VR','04','decam_pvmodel_20131115_r_04.ahead'
56876,'VR','05','decam_pvmodel_20131115_r_05.ahead'
56876,'VR','06','decam_pvmodel_20131115_r_06.ahead'
56876,'VR','07','decam_pvmodel_20131115_r_07.ahead'
56876,'VR','08','decam_pvmodel_20131115_r_08.ahead'
56876,'VR','09','decam_pvmodel_20131115_r_09.ahead'
56876,'VR','10','decam_pvmodel_20131115_r_10.ahead'
56876,'VR','11','decam_pvmodel_20131115_r_11.ahead'
56876,'VR','12','decam_pvmodel_20131115_r_12.ahead'
56876,'VR','13','decam_pvmodel_20131115_r_13.ahead'
56876,'VR','14','decam_pvmodel_20131115_r_14.ahead'
56876,'VR','15','decam_pvmodel_20131115_r_15.ahead'
56876,'VR','16','decam_pvmodel_20131115_r_16.ahead'
56876,'VR','17','decam_pvmodel_20131115_r_17.ahead'
56876,'VR','18','decam_pvmodel_20131115_r_18.ahead'
56876,'VR','19','decam_pvmodel_20131115_r_19.ahead'
56876,'VR','20','decam_pvmodel_20131115_r_20.ahead'
56876,'VR','21','decam_pvmodel_20131115_r_21.ahead'
56876,'VR','22','decam_pvmodel_20131115_r_22.ahead'
56876,'VR','23','decam_pvmodel_20131115_r_23.ahead'
56876,'VR','24','decam_pvmodel_20131115_r_24.ahead'
56876,'VR','25','decam_pvmodel_20131115_r_25.ahead'
56876,'VR','26','decam_pvmodel_20131115_r_26.ahead'
56876,'VR','27','decam_pvmodel_20131115_r_27.ahead'
56876,'VR','28','decam_pvmodel_20131115_r_28.ahead'
56876,'VR','29','decam_pvmodel_20131115_r_29.ahead'
56876,'VR','30','decam_pvmodel_20131115_r_30.ahead'
56876,'VR','31','decam_pvmodel_20131115_r_31.ahead'
56876,'VR','32','decam_pvmodel_20131115_r_32.ahead'
56876,'VR','33','decam_pvmodel_20131115_r_33.ahead'
56876,'VR','34','decam_pvmodel_20131115_r_34.ahead'
56876,'VR','35','decam_pvmodel_20131115_r_35.ahead'
56876,'VR','36','decam_pvmodel_20131115_r_36.ahead'
56876,'VR','37','decam_pvmodel_20131115_r_37.ahead'
56876,'VR','38','decam_pvmodel_20131115_r_38.ahead'
56876,'VR','39','decam_pvmodel_20131115_r_39.ahead'
56876,'VR','40','decam_pvmodel_20131115_r_40.ahead'
56876,'VR','41','decam_pvmodel_20131115_r_41.ahead'
56876,'VR','42','decam_pvmodel_20131115_r_42.ahead'
56876,'VR','43','decam_pvmodel_20131115_r_43.ahead'
56876,'VR','44','decam_pvmodel_20131115_r_44.ahead'
56876,'VR','45','decam_pvmodel_20131115_r_45.ahead'
56876,'VR','46','decam_pvmodel_20131115_r_46.ahead'
56876,'VR','47','decam_pvmodel_20131115_r_47.ahead'
56876,'VR','48','decam_pvmodel_20131115_r_48.ahead'
56876,'VR','49','decam_pvmodel_20131115_r_49.ahead'
56876,'VR','50','decam_pvmodel_20131115_r_50.ahead'
56876,'VR','51','decam_pvmodel_20131115_r_51.ahead'
56876,'VR','52','decam_pvmodel_20131115_r_52.ahead'
56876,'VR','53','decam_pvmodel_20131115_r_53.ahead'
56876,'VR','54','decam_pvmodel_20131115_r_54.ahead'
56876,'VR','55','decam_pvmodel_20131115_r_55.ahead'
56876,'VR','56','decam_pvmodel_20131115_r_56.ahead'
56876,'VR','57','decam_pvmodel_20131115_r_57.ahead'
56876,'VR','58','decam_pvmodel_20131115_r_58.ahead'
56876,'VR','59','decam_pvmodel_20131115_r_59.ahead'
56876,'VR','60','decam_pvmodel_20131115_r_60.ahead'
56876,'VR','61','decam_pvmodel_20131115_r_61.ahead'
56876,'VR','62','decam_pvmodel_20131115_r_62.ahead'
56876,'Y','01','decam_pvmodel_20131115_Y_01.ahead'
56876,'Y','02','decam_pvmodel_20131115_Y_02.ahead'
56876,'Y','03','decam_pvmodel_20131115_Y_03.ahead'
56876,'Y','04','decam_pvmodel_20131115_Y_04.ahead'
56876,'Y','05','decam_pvmodel_20131115_Y_05.ahead'
56876,'Y','06','decam_pvmodel_20131115_Y_06.ahead'
56876,'Y','07','decam_pvmodel_20131115_Y_07.ahead'
56876,'Y','08','decam_pvmodel_20131115_Y_08.ahead'
56876,'Y','09','decam_pvmodel_20131115_Y_09.ahead'
56876,'Y','10','decam_pvmodel_20131115_Y_10.ahead'
56876,'Y','11','decam_pvmodel_20131115_Y_11.ahead'
56876,'Y','12','decam_pvmodel_20131115_Y_12.ahead'
56876,'Y','13','decam_pvmodel_20131115_Y_13.ahead'
56876,'Y','14','decam_pvmodel_20131115_Y_14.ahead'
56876,'Y','15','decam_pvmodel_20131115_Y_15.ahead'
56876,'Y','16','decam_pvmodel_20131115_Y_16.ahead'
56876,'Y','17','decam_pvmodel_20131115_Y_17.ahead'
56876,'Y','18','decam_pvmodel_20131115_Y_18.ahead'
56876,'Y','19','decam_pvmodel_20131115_Y_19.ahead'
56876,'Y','20','decam_pvmodel_20131115_Y_20.ahead'
56876,'Y','21','decam_pvmodel_20131115_Y_21.ahead'
56876,'Y','22','decam_pvmodel_20131115_Y_22.ahead'
56876,'Y','23','decam_pvmodel_20131115_Y_23.ahead'
56876,'Y','24','decam_pvmodel_20131115_Y_24.ahead'
56876,'Y','25','decam_pvmodel_20131115_Y_25.ahead'
56876,'Y','26','decam_pvmodel_20131115_Y_26.ahead'
56876,'Y','27','decam_pvmodel_20131115_Y_27.ahead'
56876,'Y','28','decam_pvmodel_20131115_Y_28.ahead'
56876,'Y','29','decam_pvmodel_20131115_Y_29.ahead'
56876,'Y','30','decam_pvmodel_20131115_Y_30.ahead'
56876,'Y','31','decam_pvmodel_20131115_Y_31.ahead'
56876,'Y','32','decam_pvmodel_20131115_Y_32.ahead'
56876,'Y','33','decam_pvmodel_20131115_Y_33.ahead'
56876,'Y','34','decam_pvmodel_20131115_Y_34.ahead'
56876,'Y','35','decam_pvmodel_20131115_Y_35.ahead'
56876,'Y','36','decam_pvmodel_20131115_Y_36.ahead'
56876,'Y','37','decam_pvmodel_20131115_Y_37.ahead'
56876,'Y','38','decam_pvmodel_20131115_Y_38.ahead'
56876,'Y','39','decam_pvmodel_20131115_Y_39.ahead'
56876,'Y','40','decam_pvmodel_20131115_Y_40.ahead'
56876,'Y','41','decam_pvmodel_20131115_Y_41.ahead'
56876,'Y','42','decam_pvmodel_20131115_Y_42.ahead'
56876,'Y','43','decam_pvmodel_20131115_Y_43.ahead'
56876,'Y','44','decam_pvmodel_20131115_Y_44.ahead'
56876,'Y','45','decam_pvmodel_20131115_Y_45.ahead'
56876,'Y','46','decam_pvmodel_20131115_Y_46.ahead'
56876,'Y','47','decam_pvmodel_20131115_Y_47.ahead'
56876,'Y','48','decam_pvmodel_20131115_Y_48.ahead'
56876,'Y','49','decam_pvmodel_20131115_Y_49.ahead'
56876,'Y','50','decam_pvmodel_20131115_Y_50.ahead'
56876,'Y','51','decam_pvmodel_20131115_Y_51.ahead'
56876,'Y','52','decam_pvmodel_20131115_Y_52.ahead'
56876,'Y','53','decam_pvmodel_20131115_Y_53.ahead'
56876,'Y','54','decam_pvmodel_20131115_Y_54.ahead'
56876,'Y','55','decam_pvmodel_20131115_Y_55.ahead'
56876,'Y','56','decam_pvmodel_20131115_Y_56.ahead'
56876,'Y','57','decam_pvmodel_20131115_Y_57.ahead'
56876,'Y','58','decam_pvmodel_20131115_Y_58.ahead'
56876,'Y','59','decam_pvmodel_20131115_Y_59.ahead'
56876,'Y','60','decam_pvmodel_20131115_Y_60.ahead'
56876,'Y','61','decam_pvmodel_20131115_Y_61.ahead'
56876,'Y','62','decam_pvmodel_20131115_Y_62.ahead'
56876,'z','01','decam_pvmodel_20131115_z_01.ahead'
56876,'z','02','decam_pvmodel_20131115_z_02.ahead'
56876,'z','03','decam_pvmodel_20131115_z_03.ahead'
56876,'z','04','decam_pvmodel_20131115_z_04.ahead'
56876,'z','05','decam_pvmodel_20131115_z_05.ahead'
56876,'z','06','decam_pvmodel_20131115_z_06.ahead'
56876,'z','07','decam_pvmodel_20131115_z_07.ahead'
56876,'z','08','decam_pvmodel_20131115_z_08.ahead'
56876,'z','09','decam_pvmodel_20131115_z_09.ahead'
56876,'z','10','decam_pvmodel_20131115_z_10.ahead'
56876,'z','11','decam_pvmodel_20131115_z_11.ahead'
56876,'z','12','decam_pvmodel_20131115_z_12.ahead'
56876,'z','13','decam_pvmodel_20131115_z_13.ahead'
56876,'z','14','decam_pvmodel_20131115_z_14.ahead'
56876,'z','15','decam_pvmodel_20131115_z_15.ahead'
56876,'z','16','decam_pvmodel_20131115_z_16.ahead'
56876,'z','17','decam_pvmodel_20131115_z_17.ahead'
56876,'z','18','decam_pvmodel_20131115_z_18.ahead'
56876,'z','19','decam_pvmodel_20131115_z_19.ahead'
56876,'z','20','decam_pvmodel_20131115_z_20.ahead'
56876,'z','21','decam_pvmodel_20131115_z_21.ahead'
56876,'z','22','decam_pvmodel_20131115_z_22.ahead'
56876,'z','23','decam_pvmodel_20131115_z_23.ahead'
56876,'z','24','decam_pvmodel_20131115_z_24.ahead'
56876,'z','25','decam_pvmodel_20131115_z_25.ahead'
56876,'z','26','decam_pvmodel_20131115_z_26.ahead'
56876,'z','27','decam_pvmodel_20131115_z_27.ahead'
56876,'z','28','decam_pvmodel_20131115_z_28.ahead'
56876,'z','29','decam_pvmodel_20131115_z_29.ahead'
56876,'z','30','decam_pvmodel_20131115_z_30.ahead'
56876,'z','31','decam_pvmodel_20131115_z_31.ahead'
56876,'z','32','decam_pvmodel_20131115_z_32.ahead'
56876,'z','33','decam_pvmodel_20131115_z_33.ahead'
56876,'z','34','decam_pvmodel_20131115_z_34.ahead'
56876,'z','35','decam_pvmodel_20131115_z_35.ahead'
56876,'z','36','decam_pvmodel_20131115_z_36.ahead'
56876,'z','37','decam_pvmodel_20131115_z_37.ahead'
56876,'z','38','decam_pvmodel_20131115_z_38.ahead'
56876,'z','39','decam_pvmodel_20131115_z_39.ahead'
56876,'z','40','decam_pvmodel_20131115_z_40.ahead'
56876,'z','41','decam_pvmodel_20131115_z_41.ahead'
56876,'z','42','decam_pvmodel_20131115_z_42.ahead'
56876,'z','43','decam_pvmodel_20131115_z_43.ahead'
56876,'z','44','decam_pvmodel_20131115_z_44.ahead'
56876,'z','45','decam_pvmodel_20131115_z_45.ahead'
56876,'z','46','decam_pvmodel_20131115_z_46.ahead'
56876,'z','47','decam_pvmodel_20131115_z_47.ahead'
56876,'z','48','decam_pvmodel_20131115_z_48.ahead'
56876,'z','49','decam_pvmodel_20131115_z_49.ahead'
56876,'z','50','decam_pvmodel_20131115_z_50.ahead'
56876,'z','51','decam_pvmodel_20131115_z_51.ahead'
56876,'z','52','decam_pvmodel_20131115_z_52.ahead'
56876,'z','53','decam_pvmodel_20131115_z_53.ahead'
56876,'z','54','decam_pvmodel_20131115_z_54.ahead'
56876,'z','55','decam_pvmodel_20131115_z_55.ahead'
56876,'z','56','decam_pvmodel_20131115_z_56.ahead'
56876,'z','57','decam_pvmodel_20131115_z_57.ahead'
56876,'z','58','decam_pvmodel_20131115_z_58.ahead'
56876,'z','59','decam_pvmodel_20131115_z_59.ahead'
56876,'z','60','decam_pvmodel_20131115_z_60.ahead'
56876,'z','61','decam_pvmodel_20131115_z_61.ahead'
56876,'z','62','decam_pvmodel_20131115_z_62.ahead'
56876,'N501','01','decam_pvmodel_20131115_g_01.ahead'
56876,'N501','02','decam_pvmodel_20131115_g_02.ahead'
56876,'N501','03','decam_pvmodel_20131115_g_03.ahead'
56876,'N501','04','decam_pvmodel_20131115_g_04.ahead'
56876,'N501','05','decam_pvmodel_20131115_g_05.ahead'
56876,'N501','06','decam_pvmodel_20131115_g_06.ahead'
56876,'N501','07','decam_pvmodel_20131115_g_07.ahead'
56876,'N501','08','decam_pvmodel_20131115_g_08.ahead'
56876,'N501','09','decam_pvmodel_20131115_g_09.ahead'
56876,'N501','10','decam_pvmodel_20131115_g_10.ahead'
56876,'N501','11','decam_pvmodel_20131115_g_11.ahead'
56876,'N501','12','decam_pvmodel_20131115_g_12.ahead'
56876,'N501','13','decam_pvmodel_20131115_g_13.ahead'
56876,'N501','14','decam_pvmodel_20131115_g_14.ahead'
56876,'N501','15','decam_pvmodel_20131115_g_15.ahead'
56876,'N501','16','decam_pvmodel_20131115_g_16.ahead'
56876,'N501','17','decam_pvmodel_20131115_g_17.ahead'
56876,'N501','18','decam_pvmodel_20131115_g_18.ahead'
56876,'N501','19','decam_pvmodel_20131115_g_19.ahead'
56876,'N501','20','decam_pvmodel_20131115_g_20.ahead'
56876,'N501','21','decam_pvmodel_20131115_g_21.ahead'
56876,'N501','22','decam_pvmodel_20131115_g_22.ahead'
56876,'N501','23','decam_pvmodel_20131115_g_23.ahead'
56876,'N501','24','decam_pvmodel_20131115_g_24.ahead'
56876,'N501','25','decam_pvmodel_20131115_g_25.ahead'
56876,'N501','26','decam_pvmodel_20131115_g_26.ahead'
56876,'N501','27','decam_pvmodel_20131115_g_27.ahead'
56876,'N501','28','decam_pvmodel_20131115_g_28.ahead'
56876,'N501','29','decam_pvmodel_20131115_g_29.ahead'
56876,'N501','30','decam_pvmodel_20131115_g_30.ahead'
56876,'N501','31','decam_pvmodel_20131115_g_31.ahead'
56876,'N501','32','decam_pvmodel_20131115_g_32.ahead'
56876,'N501','33','decam_pvmodel_20131115_g_33.ahead'
56876,'N501','34','decam_pvmodel_20131115_g_34.ahead'
56876,'N501','35','decam_pvmodel_20131115_g_35.ahead'
56876,'N501','36','decam_pvmodel_20131115_g_36.ahead'
56876,'N501','37','decam_pvmodel_20131115_g_37.ahead'
56876,'N501','38','decam_pvmodel_20131115_g_38.ahead'
56876,'N501','39','decam_pvmodel_20131115_g_39.ahead'
56876,'N501','40','decam_pvmodel_20131115_g_40.ahead'
56876,'N501','41','decam_pvmodel_20131115_g_41.ahead'
56876,'N501','42','decam_pvmodel_20131115_g_42.ahead'
56876,'N501','43','decam_pvmodel_20131115_g_43.ahead'
56876,'N501','44','decam_pvmodel_20131115_g_44.ahead'
56876,'N501','45','decam_pvmodel_20131115_g_45.ahead'
56876,'N501','46','decam_pvmodel_20131115_g_46.ahead'
56876,'N501','47','decam_pvmodel_20131115_g_47.ahead'
56876,'N501','48','decam_pvmodel_20131115_g_48.ahead'
56876,'N501','49','decam_pvmodel_20131115_g_49.ahead'
56876,'N501','50','decam_pvmodel_20131115_g_50.ahead'
56876,'N501','51','decam_pvmodel_20131115_g_51.ahead'
56876,'N501','52','decam_pvmodel_20131115_g_52.ahead'
56876,'N501','53','decam_pvmodel_20131115_g_53.ahead'
56876,'N501','54','decam_pvmodel_20131115_g_54.ahead'
56876,'N501','55','decam_pvmodel_20131115_g_55.ahead'
56876,'N501','56','decam_pvmodel_20131115_g_56.ahead'
56876,'N501','57','decam_pvmodel_20131115_g_57.ahead'
56876,'N501','58','decam_pvmodel_20131115_g_58.ahead'
56876,'N501','59','decam_pvmodel_20131115_g_59.ahead'
56876,'N501','60','decam_pvmodel_20131115_g_60.ahead'
56876,'N501','61','decam_pvmodel_20131115_g_61.ahead'
56876,'N501','62','decam_pvmodel_20131115_g_62.ahead'
56876,'N673','01','decam_pvmodel_20131115_r_01.ahead'
56876,'N673','02','decam_pvmodel_20131115_r_02.ahead'
56876,'N673','03','decam_pvmodel_20131115_r_03.ahead'
56876,'N673','04','decam_pvmodel_20131115_r_04.ahead'
56876,'N673','05','decam_pvmodel_20131115_r_05.ahead'
56876,'N673','06','decam_pvmodel_20131115_r_06.ahead'
56876,'N673','07','decam_pvmodel_20131115_r_07.ahead'
56876,'N673','08','decam_pvmodel_20131115_r_08.ahead'
56876,'N673','09','decam_pvmodel_20131115_r_09.ahead'
56876,'N673','10','decam_pvmodel_20131115_r_10.ahead'
56876,'N673','11','decam_pvmodel_20131115_r_11.ahead'
56876,'N673','12','decam_pvmodel_20131115_r_12.ahead'
56876,'N673','13','decam_pvmodel_20131115_r_13.ahead'
56876,'N673','14','decam_pvmodel_20131115_r_14.ahead'
56876,'N673','15','decam_pvmodel_20131115_r_15.ahead'
56876,'N673','16','decam_pvmodel_20131115_r_16.ahead'
56876,'N673','17','decam_pvmodel_20131115_r_17.ahead'
56876,'N673','18','decam_pvmodel_20131115_r_18.ahead'
56876,'N673','19','decam_pvmodel_20131115_r_19.ahead'
56876,'N673','20','decam_pvmodel_20131115_r_20.ahead'
56876,'N673','21','decam_pvmodel_20131115_r_21.ahead'
56876,'N673','22','decam_pvmodel_20131115_r_22.ahead'
56876,'N673','23','decam_pvmodel_20131115_r_23.ahead'
56876,'N673','24','decam_pvmodel_20131115_r_24.ahead'
56876,'N673','25','decam_pvmodel_20131115_r_25.ahead'
56876,'N673','26','decam_pvmodel_20131115_r_26.ahead'
56876,'N673','27','decam_pvmodel_20131115_r_27.ahead'
56876,'N673','28','decam_pvmodel_20131115_r_28.ahead'
56876,'N673','29','decam_pvmodel_20131115_r_29.ahead'
56876,'N673','30','decam_pvmodel_20131115_r_30.ahead'
56876,'N673','31','decam_pvmodel_20131115_r_31.ahead'
56876,'N673','32','decam_pvmodel_20131115_r_32.ahead'
56876,'N673','33','decam_pvmodel_20131115_r_33.ahead'
56876,'N673','34','decam_pvmodel_20131115_r_34.ahead'
56876,'N673','35','decam_pvmodel_20131115_r_35.ahead'
56876,'N673','36','decam_pvmodel_20131115_r_36.ahead'
56876,'N673','37','decam_pvmodel_20131115_r_37.ahead'
56876,'N673','38','decam_pvmodel_20131115_r_38.ahead'
56876,'N673','39','decam_pvmodel_20131115_r_39.ahead'
56876,'N673','40','decam_pvmodel_20131115_r_40.ahead'
56876,'N673','41','decam_pvmodel_20131115_r_41.ahead'
56876,'N673','42','decam_pvmodel_20131115_r_42.ahead'
56876,'N673','43','decam_pvmodel_20131115_r_43.ahead'
56876,'N673','44','decam_pvmodel_20131115_r_44.ahead'
56876,'N673','45','decam_pvmodel_20131115_r_45.ahead'
56876,'N673','46','decam_pvmodel_20131115_r_46.ahead'
56876,'N673','47','decam_pvmodel_20131115_r_47.ahead'
56876,'N673','48','decam_pvmodel_20131115_r_48.ahead'
56876,'N673','49','decam_pvmodel_20131115_r_49.ahead'
56876,'N673','50','decam_pvmodel_20131115_r_50.ahead'
56876,'N673','51','decam_pvmodel_20131115_r_51.ahead'
56876,'N673','52','decam_pvmodel_20131115_r_52.ahead'
56876,'N673','53','decam_pvmodel_20131115_r_53.ahead'
56876,'N673','54','decam_pvmodel_20131115_r_54.ahead'
56876,'N673','55','decam_pvmodel_20131115_r_55.ahead'
56876,'N673','56','decam_pvmodel_20131115_r_56.ahead'
56876,'N673','57','decam_pvmodel_20131115_r_57.ahead'
56876,'N673','58','decam_pvmodel_20131115_r_58.ahead'
56876,'N673','59','decam_pvmodel_20131115_r_59.ahead'
56876,'N673','60','decam_pvmodel_20131115_r_60.ahead'
56876,'N673','61','decam_pvmodel_20131115_r_61.ahead'
56876,'N673','62','decam_pvmodel_20131115_r_62.ahead'
56876,'N708','01','decam_pvmodel_20131115_r_01.ahead'
56876,'N708','02','decam_pvmodel_20131115_r_02.ahead'
56876,'N708','03','decam_pvmodel_20131115_r_03.ahead'
56876,'N708','04','decam_pvmodel_20131115_r_04.ahead'
56876,'N708','05','decam_pvmodel_20131115_r_05.ahead'
56876,'N708','06','decam_pvmodel_20131115_r_06.ahead'
56876,'N708','07','decam_pvmodel_20131115_r_07.ahead'
56876,'N708','08','decam_pvmodel_20131115_r_08.ahead'
56876,'N708','09','decam_pvmodel_20131115_r_09.ahead'
56876,'N708','10','decam_pvmodel_20131115_r_10.ahead'
56876,'N708','11','decam_pvmodel_20131115_r_11.ahead'
56876,'N708','12','decam_pvmodel_20131115_r_12.ahead'
56876,'N708','13','decam_pvmodel_20131115_r_13.ahead'
56876,'N708','14','decam_pvmodel_20131115_r_14.ahead'
56876,'N708','15','decam_pvmodel_20131115_r_15.ahead'
56876,'N708','16','decam_pvmodel_20131115_r_16.ahead'
56876,'N708','17','decam_pvmodel_20131115_r_17.ahead'
56876,'N708','18','decam_pvmodel_20131115_r_18.ahead'
56876,'N708','19','decam_pvmodel_20131115_r_19.ahead'
56876,'N708','20','decam_pvmodel_20131115_r_20.ahead'
56876,'N708','21','decam_pvmodel_20131115_r_21.ahead'
56876,'N708','22','decam_pvmodel_20131115_r_22.ahead'
56876,'N708','23','decam_pvmodel_20131115_r_23.ahead'
56876,'N708','24','decam_pvmodel_20131115_r_24.ahead'
56876,'N708','25','decam_pvmodel_20131115_r_25.ahead'
56876,'N708','26','decam_pvmodel_20131115_r_26.ahead'
56876,'N708','27','decam_pvmodel_20131115_r_27.ahead'
56876,'N708','28','decam_pvmodel_20131115_r_28.ahead'
56876,'N708','29','decam_pvmodel_20131115_r_29.ahead'
56876,'N708','30','decam_pvmodel_20131115_r_30.ahead'
56876,'N708','31','decam_pvmodel_20131115_r_31.ahead'
56876,'N708','32','decam_pvmodel_20131115_r_32.ahead'
56876,'N708','33','decam_pvmodel_20131115_r_33.ahead'
56876,'N708','34','decam_pvmodel_20131115_r_34.ahead'
56876,'N708','35','decam_pvmodel_20131115_r_35.ahead'
56876,'N708','36','decam_pvmodel_20131115_r_36.ahead'
56876,'N708','37','decam_pvmodel_20131115_r_37.ahead'
56876,'N708','38','decam_pvmodel_20131115_r_38.ahead'
56876,'N708','39','decam_pvmodel_20131115_r_39.ahead'
56876,'N708','40','decam_pvmodel_20131115_r_40.ahead'
56876,'N708','41','decam_pvmodel_20131115_r_41.ahead'
56876,'N708','42','decam_pvmodel_20131115_r_42.ahead'
56876,'N708','43','decam_pvmodel_20131115_r_43.ahead'
56876,'N708','44','decam_pvmodel_20131115_r_44.ahead'
56876,'N708','45','decam_pvmodel_20131115_r_45.ahead'
56876,'N708','46','decam_pvmodel_20131115_r_46.ahead'
56876,'N708','47','decam_pvmodel_20131115_r_47.ahead'
56876,'N708','48','decam_pvmodel_20131115_r_48.ahead'
56876,'N708','49','decam_pvmodel_20131115_r_49.ahead'
56876,'N708','50','decam_pvmodel_20131115_r_50.ahead'
56876,'N708','51','decam_pvmodel_20131115_r_51.ahead'
56876,'N708','52','decam_pvmodel_20131115_r_52.ahead'
56876,'N708','53','decam_pvmodel_20131115_r_53.ahead'
56876,'N708','54','decam_pvmodel_20131115_r_54.ahead'
56876,'N708','55','decam_pvmodel_20131115_r_55.ahead'
56876,'N708','56','decam_pvmodel_20131115_r_56.ahead'
56876,'N708','57','decam_pvmodel_20131115_r_57.ahead'
56876,'N708','58','decam_pvmodel_20131115_r_58.ahead'
56876,'N708','59','decam_pvmodel_20131115_r_59.ahead'
56876,'N708','60','decam_pvmodel_20131115_r_60.ahead'
56876,'N708','61','decam_pvmodel_20131115_r_61.ahead'
56876,'N708','62','decam_pvmodel_20131115_r_62.ahead'
56876,'N419','01','decam_pvmodel_20131115_g_01.ahead'
56876,'N419','02','decam_pvmodel_20131115_g_02.ahead'
56876,'N419','03','decam_pvmodel_20131115_g_03.ahead'
56876,'N419','04','decam_pvmodel_20131115_g_04.ahead'
56876,'N419','05','decam_pvmodel_20131115_g_05.ahead'
56876,'N419','06','decam_pvmodel_20131115_g_06.ahead'
56876,'N419','07','decam_pvmodel_20131115_g_07.ahead'
56876,'N419','08','decam_pvmodel_20131115_g_08.ahead'
56876,'N419','09','decam_pvmodel_20131115_g_09.ahead'
56876,'N419','10','decam_pvmodel_20131115_g_10.ahead'
56876,'N419','11','decam_pvmodel_20131115_g_11.ahead'
56876,'N419','12','decam_pvmodel_20131115_g_12.ahead'
56876,'N419','13','decam_pvmodel_20131115_g_13.ahead'
56876,'N419','14','decam_pvmodel_20131115_g_14.ahead'
56876,'N419','15','decam_pvmodel_20131115_g_15.ahead'
56876,'N419','16','decam_pvmodel_20131115_g_16.ahead'
56876,'N419','17','decam_pvmodel_20131115_g_17.ahead'
56876,'N419','18','decam_pvmodel_20131115_g_18.ahead'
56876,'N419','19','decam_pvmodel_20131115_g_19.ahead'
56876,'N419','20','decam_pvmodel_20131115_g_20.ahead'
56876,'N419','21','decam_pvmodel_20131115_g_21.ahead'
56876,'N419','22','decam_pvmodel_20131115_g_22.ahead'
56876,'N419','23','decam_pvmodel_20131115_g_23.ahead'
56876,'N419','24','decam_pvmodel_20131115_g_24.ahead'
56876,'N419','25','decam_pvmodel_20131115_g_25.ahead'
56876,'N419','26','decam_pvmodel_20131115_g_26.ahead'
56876,'N419','27','decam_pvmodel_20131115_g_27.ahead'
56876,'N419','28','decam_pvmodel_20131115_g_28.ahead'
56876,'N419','29','decam_pvmodel_20131115_g_29.ahead'
56876,'N419','30','decam_pvmodel_20131115_g_30.ahead'
56876,'N419','31','decam_pvmodel_20131115_g_31.ahead'
56876,'N419','32','decam_pvmodel_20131115_g_32.ahead'
56876,'N419','33','decam_pvmodel_20131115_g_33.ahead'
56876,'N419','34','decam_pvmodel_20131115_g_34.ahead'
56876,'N419','35','decam_pvmodel_20131115_g_35.ahead'
56876,'N419','36','decam_pvmodel_20131115_g_36.ahead'
56876,'N419','37','decam_pvmodel_20131115_g_37.ahead'
56876,'N419','38','decam_pvmodel_20131115_g_38.ahead'
56876,'N419','39','decam_pvmodel_20131115_g_39.ahead'
56876,'N419','40','decam_pvmodel_20131115_g_40.ahead'
56876,'N419','41','decam_pvmodel_20131115_g_41.ahead'
56876,'N419','42','decam_pvmodel_20131115_g_42.ahead'
56876,'N419','43','decam_pvmodel_20131115_g_43.ahead'
56876,'N419','44','decam_pvmodel_20131115_g_44.ahead'
56876,'N419','45','decam_pvmodel_20131115_g_45.ahead'
56876,'N419','46','decam_pvmodel_20131115_g_46.ahead'
56876,'N419','47','decam_pvmodel_20131115_g_47.ahead'
56876,'N419','48','decam_pvmodel_20131115_g_48.ahead'
56876,'N419','49','decam_pvmodel_20131115_g_49.ahead'
56876,'N419','50','decam_pvmodel_20131115_g_50.ahead'
56876,'N419','51','decam_pvmodel_20131115_g_51.ahead'
56876,'N419','52','decam_pvmodel_20131115_g_52.ahead'
56876,'N419','53','decam_pvmodel_20131115_g_53.ahead'
56876,'N419','54','decam_pvmodel_20131115_g_54.ahead'
56876,'N419','55','decam_pvmodel_20131115_g_55.ahead'
56876,'N419','56','decam_pvmodel_20131115_g_56.ahead'
56876,'N419','57','decam_pvmodel_20131115_g_57.ahead'
56876,'N419','58','decam_pvmodel_20131115_g_58.ahead'
56876,'N419','59','decam_pvmodel_20131115_g_59.ahead'
56876,'N419','60','decam_pvmodel_20131115_g_60.ahead'
56876,'N419','61','decam_pvmodel_20131115_g_61.ahead'
56876,'N419','62','decam_pvmodel_20131115_g_62.ahead'
